Prediction understanding
…
=> model performance

=> model diagnostics

Model diagnostics: example data

library(tidyverse)
library(readr)
library(randomForest)
house <- read_csv("mieszkania.csv")
house <- mutate_if(house, is.character, as.factor)
house # pozmieniam nazwy na angielskie

## # A tibble: 5,851 x 7
##    n_pokoj metraz cena_m2   rok pietro pietro_maks dzielnica   
##      <int>  <dbl>   <int> <int>  <int>       <int> <fct>       
##  1       3   89.0    5270  2007      2           2 Krzyki      
##  2       4  163.     6687  2002      2           2 Psie Pole   
##  3       3   52.0    6731  1930      1           2 Srodmiescie 
##  4       4   95.0    5525  2016      1           2 Krzyki      
##  5       4   88.0    5216  1930      3           4 Srodmiescie 
##  6       2   50.0    5600  1915      3           4 Krzyki      
##  7       2   48.0    9146  2010      2           6 Fabryczna   
##  8       2   46.0    9761  2011      4           6 Stare Miasto
##  9       3   67.0    5209  1990      1          10 Fabryczna   
## 10       2   45.8    6878  2000      3           4 Krzyki      
## # ... with 5,841 more rows
…
